<svg xmlns="http://www.w3.org/2000/svg">
  <symbol id="eye-hide" viewBox="0 0 22 17" stroke="none">
    <path fill-rule="evenodd" clip-rule="evenodd" d="M7.77434 7.13913L1.8642 2.27196C1.43787 1.92087 1.37688 1.29065 1.72798 0.864321C2.07907 0.437996 2.70929 0.377007 3.13561 0.728098L9.04619 5.59563C9.60417 5.21956 10.2764 5.00003 10.9999 5.00003C12.9329 5.00003 14.4999 6.56703 14.4999 8.50003C14.4999 8.98272 14.4022 9.44258 14.2255 9.86093L20.1356 14.7281C20.5619 15.0792 20.6229 15.7094 20.2718 16.1357C19.9207 16.5621 19.2905 16.6231 18.8642 16.272L12.9536 11.4044C12.3956 11.7805 11.7234 12 10.9999 12C9.06691 12 7.49991 10.433 7.49991 8.50003C7.49991 8.01734 7.59762 7.55747 7.77434 7.13913ZM19.473 11.7199L17.9371 10.4311C18.4997 9.86759 19.0457 9.22446 19.5762 8.49999C17.0933 5.10905 14.2695 3.5 10.9999 3.5C10.5831 3.5 10.1735 3.52615 9.77091 3.57882L7.83044 1.95057C8.84402 1.65019 9.90051 1.5 10.9999 1.5C15.1551 1.5 18.6972 3.64539 21.6264 7.93616C21.8586 8.2762 21.8586 8.72377 21.6265 9.06381C20.9421 10.0663 20.2243 10.9516 19.473 11.7199ZM14.1229 15.0631C13.1235 15.3544 12.0825 15.5 10.9999 15.5C6.84473 15.5 3.30255 13.3547 0.373337 9.06388C0.141182 8.72384 0.141182 8.27627 0.373322 7.93623C1.0491 6.94633 1.75751 6.07061 2.49854 5.30908L4.03415 6.59761C3.48161 7.15422 2.94508 7.78783 2.42359 8.50005C4.90644 11.891 7.7303 13.5 10.9999 13.5C11.398 13.5 11.7894 13.4762 12.1745 13.4282L14.1229 15.0631Z" />
  </symbol>
</svg>
